{
  "version": "tree-0.1",
  "tree": {
    "id": "App",
    "path": "",
    "children": {
      "Tree": {
        "id": "Tree",
        "path": "Tree"
      },
      "VpcTestStack": {
        "id": "VpcTestStack",
        "path": "VpcTestStack",
        "children": {
          "theVPC": {
            "id": "theVPC",
            "path": "VpcTestStack/theVPC",
            "children": {
              "Resource": {
                "id": "Resource",
                "path": "VpcTestStack/theVPC/Resource",
                "attributes": {
                  "aws:cdk:cloudformation:type": "AWS::EC2::VPC",
                  "aws:cdk:cloudformation:props": {
                    "cidrBlock": "10.1.0.0/16",
                    "enableDnsHostnames": true,
                    "enableDnsSupport": true,
                    "instanceTenancy": "default",
                    "tags": [
                      {
                        "key": "Name",
                        "value": "VpcTestStack/theVPC"
                      }
                    ]
                  }
                }
              },
              "PublicSubnet1": {
                "id": "PublicSubnet1",
                "path": "VpcTestStack/theVPC/PublicSubnet1",
                "children": {
                  "Subnet": {
                    "id": "Subnet",
                    "path": "VpcTestStack/theVPC/PublicSubnet1/Subnet",
                    "attributes": {
                      "aws:cdk:cloudformation:type": "AWS::EC2::Subnet",
                      "aws:cdk:cloudformation:props": {
                        "cidrBlock": "10.1.0.0/18",
                        "vpcId": {
                          "Ref": "theVPCF3D64EF2"
                        },
                        "availabilityZone": {
                          "Fn::Select": [
                            0,
                            {
                              "Fn::GetAZs": ""
                            }
                          ]
                        },
                        "mapPublicIpOnLaunch": true,
                        "tags": [
                          {
                            "key": "Name",
                            "value": "VpcTestStack/theVPC/PublicSubnet1"
                          },
                          {
                            "key": "aws-cdk:subnet-name",
                            "value": "Public"
                          },
                          {
                            "key": "aws-cdk:subnet-type",
                            "value": "Public"
                          }
                        ]
                      }
                    }
                  },
                  "Acl": {
                    "id": "Acl",
                    "path": "VpcTestStack/theVPC/PublicSubnet1/Acl"
                  },
                  "RouteTable": {
                    "id": "RouteTable",
                    "path": "VpcTestStack/theVPC/PublicSubnet1/RouteTable",
                    "attributes": {
                      "aws:cdk:cloudformation:type": "AWS::EC2::RouteTable",
                      "aws:cdk:cloudformation:props": {
                        "vpcId": {
                          "Ref": "theVPCF3D64EF2"
                        },
                        "tags": [
                          {
                            "key": "Name",
                            "value": "VpcTestStack/theVPC/PublicSubnet1"
                          }
                        ]
                      }
                    }
                  },
                  "RouteTableAssociation": {
                    "id": "RouteTableAssociation",
                    "path": "VpcTestStack/theVPC/PublicSubnet1/RouteTableAssociation",
                    "attributes": {
                      "aws:cdk:cloudformation:type": "AWS::EC2::SubnetRouteTableAssociation",
                      "aws:cdk:cloudformation:props": {
                        "routeTableId": {
                          "Ref": "theVPCPublicSubnet1RouteTable14D8756E"
                        },
                        "subnetId": {
                          "Ref": "theVPCPublicSubnet1Subnet6723D15C"
                        }
                      }
                    }
                  },
                  "DefaultRoute": {
                    "id": "DefaultRoute",
                    "path": "VpcTestStack/theVPC/PublicSubnet1/DefaultRoute",
                    "attributes": {
                      "aws:cdk:cloudformation:type": "AWS::EC2::Route",
                      "aws:cdk:cloudformation:props": {
                        "routeTableId": {
                          "Ref": "theVPCPublicSubnet1RouteTable14D8756E"
                        },
                        "destinationCidrBlock": "0.0.0.0/0",
                        "gatewayId": {
                          "Ref": "theVPCIGW5C86D400"
                        }
                      }
                    }
                  },
                  "EIP": {
                    "id": "EIP",
                    "path": "VpcTestStack/theVPC/PublicSubnet1/EIP",
                    "attributes": {
                      "aws:cdk:cloudformation:type": "AWS::EC2::EIP",
                      "aws:cdk:cloudformation:props": {
                        "domain": "vpc",
                        "tags": [
                          {
                            "key": "Name",
                            "value": "VpcTestStack/theVPC/PublicSubnet1"
                          }
                        ]
                      }
                    }
                  },
                  "NATGateway": {
                    "id": "NATGateway",
                    "path": "VpcTestStack/theVPC/PublicSubnet1/NATGateway",
                    "attributes": {
                      "aws:cdk:cloudformation:type": "AWS::EC2::NatGateway",
                      "aws:cdk:cloudformation:props": {
                        "allocationId": {
                          "Fn::GetAtt": [
                            "theVPCPublicSubnet1EIPE082B997",
                            "AllocationId"
                          ]
                        },
                        "subnetId": {
                          "Ref": "theVPCPublicSubnet1Subnet6723D15C"
                        },
                        "tags": [
                          {
                            "key": "Name",
                            "value": "VpcTestStack/theVPC/PublicSubnet1"
                          }
                        ]
                      }
                    }
                  }
                }
              },
              "PublicSubnet2": {
                "id": "PublicSubnet2",
                "path": "VpcTestStack/theVPC/PublicSubnet2",
                "children": {
                  "Subnet": {
                    "id": "Subnet",
                    "path": "VpcTestStack/theVPC/PublicSubnet2/Subnet",
                    "attributes": {
                      "aws:cdk:cloudformation:type": "AWS::EC2::Subnet",
                      "aws:cdk:cloudformation:props": {
                        "cidrBlock": "10.1.64.0/18",
                        "vpcId": {
                          "Ref": "theVPCF3D64EF2"
                        },
                        "availabilityZone": {
                          "Fn::Select": [
                            1,
                            {
                              "Fn::GetAZs": ""
                            }
                          ]
                        },
                        "mapPublicIpOnLaunch": true,
                        "tags": [
                          {
                            "key": "Name",
                            "value": "VpcTestStack/theVPC/PublicSubnet2"
                          },
                          {
                            "key": "aws-cdk:subnet-name",
                            "value": "Public"
                          },
                          {
                            "key": "aws-cdk:subnet-type",
                            "value": "Public"
                          }
                        ]
                      }
                    }
                  },
                  "Acl": {
                    "id": "Acl",
                    "path": "VpcTestStack/theVPC/PublicSubnet2/Acl"
                  },
                  "RouteTable": {
                    "id": "RouteTable",
                    "path": "VpcTestStack/theVPC/PublicSubnet2/RouteTable",
                    "attributes": {
                      "aws:cdk:cloudformation:type": "AWS::EC2::RouteTable",
                      "aws:cdk:cloudformation:props": {
                        "vpcId": {
                          "Ref": "theVPCF3D64EF2"
                        },
                        "tags": [
                          {
                            "key": "Name",
                            "value": "VpcTestStack/theVPC/PublicSubnet2"
                          }
                        ]
                      }
                    }
                  },
                  "RouteTableAssociation": {
                    "id": "RouteTableAssociation",
                    "path": "VpcTestStack/theVPC/PublicSubnet2/RouteTableAssociation",
                    "attributes": {
                      "aws:cdk:cloudformation:type": "AWS::EC2::SubnetRouteTableAssociation",
                      "aws:cdk:cloudformation:props": {
                        "routeTableId": {
                          "Ref": "theVPCPublicSubnet2RouteTableC20AA135"
                        },
                        "subnetId": {
                          "Ref": "theVPCPublicSubnet2Subnet658F0A8D"
                        }
                      }
                    }
                  },
                  "DefaultRoute": {
                    "id": "DefaultRoute",
                    "path": "VpcTestStack/theVPC/PublicSubnet2/DefaultRoute",
                    "attributes": {
                      "aws:cdk:cloudformation:type": "AWS::EC2::Route",
                      "aws:cdk:cloudformation:props": {
                        "routeTableId": {
                          "Ref": "theVPCPublicSubnet2RouteTableC20AA135"
                        },
                        "destinationCidrBlock": "0.0.0.0/0",
                        "gatewayId": {
                          "Ref": "theVPCIGW5C86D400"
                        }
                      }
                    }
                  },
                  "EIP": {
                    "id": "EIP",
                    "path": "VpcTestStack/theVPC/PublicSubnet2/EIP",
                    "attributes": {
                      "aws:cdk:cloudformation:type": "AWS::EC2::EIP",
                      "aws:cdk:cloudformation:props": {
                        "domain": "vpc",
                        "tags": [
                          {
                            "key": "Name",
                            "value": "VpcTestStack/theVPC/PublicSubnet2"
                          }
                        ]
                      }
                    }
                  },
                  "NATGateway": {
                    "id": "NATGateway",
                    "path": "VpcTestStack/theVPC/PublicSubnet2/NATGateway",
                    "attributes": {
                      "aws:cdk:cloudformation:type": "AWS::EC2::NatGateway",
                      "aws:cdk:cloudformation:props": {
                        "allocationId": {
                          "Fn::GetAtt": [
                            "theVPCPublicSubnet2EIP05DF450D",
                            "AllocationId"
                          ]
                        },
                        "subnetId": {
                          "Ref": "theVPCPublicSubnet2Subnet658F0A8D"
                        },
                        "tags": [
                          {
                            "key": "Name",
                            "value": "VpcTestStack/theVPC/PublicSubnet2"
                          }
                        ]
                      }
                    }
                  }
                }
              },
              "PrivateSubnet1": {
                "id": "PrivateSubnet1",
                "path": "VpcTestStack/theVPC/PrivateSubnet1",
                "children": {
                  "Subnet": {
                    "id": "Subnet",
                    "path": "VpcTestStack/theVPC/PrivateSubnet1/Subnet",
                    "attributes": {
                      "aws:cdk:cloudformation:type": "AWS::EC2::Subnet",
                      "aws:cdk:cloudformation:props": {
                        "cidrBlock": "10.1.128.0/18",
                        "vpcId": {
                          "Ref": "theVPCF3D64EF2"
                        },
                        "availabilityZone": {
                          "Fn::Select": [
                            0,
                            {
                              "Fn::GetAZs": ""
                            }
                          ]
                        },
                        "mapPublicIpOnLaunch": false,
                        "tags": [
                          {
                            "key": "Name",
                            "value": "VpcTestStack/theVPC/PrivateSubnet1"
                          },
                          {
                            "key": "aws-cdk:subnet-name",
                            "value": "Private"
                          },
                          {
                            "key": "aws-cdk:subnet-type",
                            "value": "Private"
                          }
                        ]
                      }
                    }
                  },
                  "Acl": {
                    "id": "Acl",
                    "path": "VpcTestStack/theVPC/PrivateSubnet1/Acl"
                  },
                  "RouteTable": {
                    "id": "RouteTable",
                    "path": "VpcTestStack/theVPC/PrivateSubnet1/RouteTable",
                    "attributes": {
                      "aws:cdk:cloudformation:type": "AWS::EC2::RouteTable",
                      "aws:cdk:cloudformation:props": {
                        "vpcId": {
                          "Ref": "theVPCF3D64EF2"
                        },
                        "tags": [
                          {
                            "key": "Name",
                            "value": "VpcTestStack/theVPC/PrivateSubnet1"
                          }
                        ]
                      }
                    }
                  },
                  "RouteTableAssociation": {
                    "id": "RouteTableAssociation",
                    "path": "VpcTestStack/theVPC/PrivateSubnet1/RouteTableAssociation",
                    "attributes": {
                      "aws:cdk:cloudformation:type": "AWS::EC2::SubnetRouteTableAssociation",
                      "aws:cdk:cloudformation:props": {
                        "routeTableId": {
                          "Ref": "theVPCPrivateSubnet1RouteTableBAE035B6"
                        },
                        "subnetId": {
                          "Ref": "theVPCPrivateSubnet1Subnet3FB30AAF"
                        }
                      }
                    }
                  },
                  "DefaultRoute": {
                    "id": "DefaultRoute",
                    "path": "VpcTestStack/theVPC/PrivateSubnet1/DefaultRoute",
                    "attributes": {
                      "aws:cdk:cloudformation:type": "AWS::EC2::Route",
                      "aws:cdk:cloudformation:props": {
                        "routeTableId": {
                          "Ref": "theVPCPrivateSubnet1RouteTableBAE035B6"
                        },
                        "destinationCidrBlock": "0.0.0.0/0",
                        "natGatewayId": {
                          "Ref": "theVPCPublicSubnet1NATGatewayC6057C78"
                        }
                      }
                    }
                  }
                }
              },
              "PrivateSubnet2": {
                "id": "PrivateSubnet2",
                "path": "VpcTestStack/theVPC/PrivateSubnet2",
                "children": {
                  "Subnet": {
                    "id": "Subnet",
                    "path": "VpcTestStack/theVPC/PrivateSubnet2/Subnet",
                    "attributes": {
                      "aws:cdk:cloudformation:type": "AWS::EC2::Subnet",
                      "aws:cdk:cloudformation:props": {
                        "cidrBlock": "10.1.192.0/18",
                        "vpcId": {
                          "Ref": "theVPCF3D64EF2"
                        },
                        "availabilityZone": {
                          "Fn::Select": [
                            1,
                            {
                              "Fn::GetAZs": ""
                            }
                          ]
                        },
                        "mapPublicIpOnLaunch": false,
                        "tags": [
                          {
                            "key": "Name",
                            "value": "VpcTestStack/theVPC/PrivateSubnet2"
                          },
                          {
                            "key": "aws-cdk:subnet-name",
                            "value": "Private"
                          },
                          {
                            "key": "aws-cdk:subnet-type",
                            "value": "Private"
                          }
                        ]
                      }
                    }
                  },
                  "Acl": {
                    "id": "Acl",
                    "path": "VpcTestStack/theVPC/PrivateSubnet2/Acl"
                  },
                  "RouteTable": {
                    "id": "RouteTable",
                    "path": "VpcTestStack/theVPC/PrivateSubnet2/RouteTable",
                    "attributes": {
                      "aws:cdk:cloudformation:type": "AWS::EC2::RouteTable",
                      "aws:cdk:cloudformation:props": {
                        "vpcId": {
                          "Ref": "theVPCF3D64EF2"
                        },
                        "tags": [
                          {
                            "key": "Name",
                            "value": "VpcTestStack/theVPC/PrivateSubnet2"
                          }
                        ]
                      }
                    }
                  },
                  "RouteTableAssociation": {
                    "id": "RouteTableAssociation",
                    "path": "VpcTestStack/theVPC/PrivateSubnet2/RouteTableAssociation",
                    "attributes": {
                      "aws:cdk:cloudformation:type": "AWS::EC2::SubnetRouteTableAssociation",
                      "aws:cdk:cloudformation:props": {
                        "routeTableId": {
                          "Ref": "theVPCPrivateSubnet2RouteTableAEADD806"
                        },
                        "subnetId": {
                          "Ref": "theVPCPrivateSubnet2Subnet21335280"
                        }
                      }
                    }
                  },
                  "DefaultRoute": {
                    "id": "DefaultRoute",
                    "path": "VpcTestStack/theVPC/PrivateSubnet2/DefaultRoute",
                    "attributes": {
                      "aws:cdk:cloudformation:type": "AWS::EC2::Route",
                      "aws:cdk:cloudformation:props": {
                        "routeTableId": {
                          "Ref": "theVPCPrivateSubnet2RouteTableAEADD806"
                        },
                        "destinationCidrBlock": "0.0.0.0/0",
                        "natGatewayId": {
                          "Ref": "theVPCPublicSubnet2NATGatewayDB37E53E"
                        }
                      }
                    }
                  }
                }
              },
              "IGW": {
                "id": "IGW",
                "path": "VpcTestStack/theVPC/IGW",
                "attributes": {
                  "aws:cdk:cloudformation:type": "AWS::EC2::InternetGateway",
                  "aws:cdk:cloudformation:props": {
                    "tags": [
                      {
                        "key": "Name",
                        "value": "VpcTestStack/theVPC"
                      }
                    ]
                  }
                }
              },
              "VPCGW": {
                "id": "VPCGW",
                "path": "VpcTestStack/theVPC/VPCGW",
                "attributes": {
                  "aws:cdk:cloudformation:type": "AWS::EC2::VPCGatewayAttachment",
                  "aws:cdk:cloudformation:props": {
                    "vpcId": {
                      "Ref": "theVPCF3D64EF2"
                    },
                    "internetGatewayId": {
                      "Ref": "theVPCIGW5C86D400"
                    }
                  }
                }
              }
            }
          }
        }
      }
    }
  }
}